^C:\USERS\GOTHIC LIBRARY\DOWNLOADS\CPP\PRACTICALWORK\X64\DEBUG\PRACTICALWORK.OBJ
C:\USERS\GOTHIC LIBRARY\DOWNLOADS\CPP\PRACTICALWORK\X64\DEBUG\PRACTICALWORK.EXE
C:\USERS\GOTHIC LIBRARY\DOWNLOADS\CPP\PRACTICALWORK\X64\DEBUG\PRACTICALWORK.ILK
C:\USERS\GOTHIC LIBRARY\DOWNLOADS\CPP\PRACTICALWORK\X64\DEBUG\PRACTICALWORK.PDB
